[gd_scene load_steps=4 format=2]

[ext_resource path="res://Assets/gfx/leafparticle.png" type="Texture" id=1]

[sub_resource type="Curve" id=1]
min_value = -360.0
max_value = 360.0
_data = [ Vector2( 0.003367, 54.8182 ), 0.0, -627.75, 0, 0, Vector2( 0.323232, 2.45456 ), 1036.8, 1036.8, 0, 0, Vector2( 0.643098, -13.0909 ), 469.8, 469.8, 0, 0, Vector2( 1, 9 ), -631.8, 0.0, 0, 0 ]

[sub_resource type="Gradient" id=2]
offsets = PoolRealArray( 0.0182482, 0.222628, 0.448905, 0.693431, 1 )
colors = PoolColorArray( 1, 1, 1, 0, 0.945098, 0.945098, 0.945098, 0.588235, 0.764706, 0.764706, 0.764706, 0.870588, 0.556863, 0.556863, 0.556863, 0.756863, 0, 0, 0, 0 )

[node name="Leaves" type="CPUParticles2D"]
amount = 25
lifetime = 19.85
preprocess = 139.35
speed_scale = 0.66
texture = ExtResource( 1 )
emission_shape = 1
emission_sphere_radius = 60.34
gravity = Vector2( -2, 0.3 )
angular_velocity_curve = SubResource( 1 )
scale_amount = 0.14
color_ramp = SubResource( 2 )
