[gd_scene load_steps=2 format=2]

[ext_resource path="res://Scripts/SoundRandom.cs" type="Script" id=2]

[node name="AmbSound" type="AudioStreamPlayer2D"]
pause_mode = 2
max_distance = 500.0
script = ExtResource( 2 )
